<svg width="800" height="800" viewBox="0 0 800 800" fill="none" xmlns="http://www.w3.org/2000/svg">
    <rect width="800" height="800" fill="white"/>
    <path fill-rule="evenodd" clip-rule="evenodd" d="M328.53 292H90.7114H69.2416V270.573V270.237L60.7924 271.75L60.8618 272.151L39.7042 275.783L0 48.1346L1.87943 47.8115L1.6895 46.6775L257.668 3.80079L257.637 3.63267L278.795 0L293.592 77.7316H328.53H350V99.1585V270.573V292H328.53ZM261.677 24.8551L24.6555 64.5574L57.1112 250.641L69.2416 248.471V99.1585V77.7316H90.7114H271.741L261.677 24.8551ZM328.53 99.1585H277.416L275.872 99.4238L275.82 99.1585H90.7114V270.573H328.53V99.1585ZM312.015 204.644L255.863 146.957L183.197 227.719L153.469 209.589L107.227 237.609V115.641H312.015V204.644ZM152.643 128.826C141.241 128.826 131.999 138.05 131.999 149.429C131.999 160.808 141.241 170.032 152.643 170.032C164.045 170.032 173.287 160.808 173.287 149.429C173.287 138.05 164.045 128.826 152.643 128.826Z" transform="translate(225 254)" fill="#cfd0d1"/>
</svg>
