<svg xmlns="http://www.w3.org/2000/svg" width="499.924" height="107.012" viewBox="0 0 939 201">
  <metadata><?xpacket begin="﻿" id="W5M0MpCehiHzreSzNTczkc9d"?>
<x:xmpmeta xmlns:x="adobe:ns:meta/" x:xmptk="Adobe XMP Core 5.6-c138 79.159824, 2016/09/14-01:09:01        ">
   <rdf:RDF xmlns:rdf="http://www.w3.org/1999/02/22-rdf-syntax-ns#">
      <rdf:Description rdf:about=""/>
   </rdf:RDF>
</x:xmpmeta>
                                                                                                    
                                                                                                    
                                                                                                    
                                                                                                    
                                                                                                    
                                                                                                    
                                                                                                    
                                                                                                    
                                                                                                    
                                                                                                    
                                                                                                    
                                                                                                    
                                                                                                    
                                                                                                    
                                                                                                    
                                                                                                    
                                                                                                    
                                                                                                    
                                                                                                    
                                                                                                    
                           
<?xpacket end="w"?></metadata>
<defs>
    <style>
      .cls-1 {
        fill: #fafafa;
      }

      .cls-1, .cls-2, .cls-3 {
        fill-rule: evenodd;
      }

      .cls-2 {
        fill: #6ce46c;
      }

      .cls-3 {
        fill: #6cbcf8;
      }
    </style>
  </defs>
  <path class="cls-1" d="M279.586,195.486H390.424V166.075H309V114.884h81.429V85.476H309V34.3h81.429V4.889H279.586v190.6ZM545.725,93.242a56.446,56.446,0,0,0,8.8-30.927C553.713,27.944,526.3,4.889,496.06,4.889H442.737V195.483h71.588c31.084,0,55.562-25.113,55.71-57.169C570.138,117.126,557.037,102.185,545.725,93.242Zm-33.508,72.833H472.145V34.3h23.721c15.172,0,29.253,11.016,29.253,28.1,0,7.983-2.086,13.785-6.682,19.391-6.262,7.646-19.087,15.991-19.087,15.991s16.05,5.076,26.947,13.491c7.845,6.055,14.33,14.966,14.33,26.906A28.172,28.172,0,0,1,512.217,166.075ZM743.644,70.984a66.169,66.169,0,0,0-66.09-66.095H614.187v190.6H643.6V34.3h33.959a36.72,36.72,0,0,1,36.682,36.686c0,14.571-8.6,25.892-20.271,32.894a117.223,117.223,0,0,1-27.939,11.551s27.761,52.51,42.327,80.057h33.534c-4.231-7.892-26.2-49.677-34.559-65.387A65.782,65.782,0,0,0,743.644,70.984ZM855.158,0.01L772.3,195.486h32.589L855.158,76.879l50.281,118.607h32.589ZM253.979,4.887H221.391L171.11,123.5,123.585,12.061H91l80.114,188.3ZM101.152,158.7L35.511,4.869H0.6L83.462,200.345Z"/>
  <path class="cls-2" d="M804.887,195.486H905.439L855.158,66.8Z"/>
  <path class="cls-3" d="M33.487,4.953H166.581L101.152,158.7Z"/>
</svg>
